<?xml version="1.0" encoding="UTF-8"?>
<svg width="587px" height="110px" viewBox="0 0 587 110" version="1.1" xmlns="http://www.w3.org/2000/svg" xmlns:xlink="http://www.w3.org/1999/xlink">
    <!-- Generator: Sketch 47.1 (45422) - http://www.bohemiancoding.com/sketch -->
    <title>Group</title>
    <desc>Created with Sketch.</desc>
    <defs>
        <polygon id="path-1" points="1.24509639e-15 68.9630502 1.24509639e-15 0.0103322886 50.9281616 0.0103322886 50.9281616 68.9630502"></polygon>
        <polygon id="path-3" points="0.462640858 0.456861314 50.2509328 0.456861314 50.2509328 54.4269029 0.462640858 54.4269029"></polygon>
        <polygon id="path-5" points="48.0772193 0.722925706 48.0772193 41.9471205 0.0366227456 41.9471205 0.0366227456 0.722925706 48.0772193 0.722925706"></polygon>
    </defs>
    <g id="Front" stroke="none" stroke-width="1" fill="none" fill-rule="evenodd">
        <g id="Artboard" transform="translate(-5.000000, -66.000000)">
            <g id="Group" transform="translate(5.000000, 66.000000)">
                <g id="Group-4">
                    <g id="Group-3" transform="translate(0.000000, 20.419051)">
                        <mask id="mask-2" fill="white">
                            <use xlink:href="#path-1"></use>
                        </mask>
                        <g id="Clip-2"></g>
                        <path d="M35.2134422,61.2072117 C37.7837665,59.8101314 40.8211316,58.8289635 41.5944681,55.0801314 C42.2718373,51.7905693 42.0863005,48.8687445 40.450058,46.1026861 C39.6495308,44.7505693 38.1884286,43.8609343 36.5209967,43.6931241 C34.609648,43.5012263 32.6327215,43.5277226 30.6318033,43.4715182 C30.6318033,43.4715182 26.7587229,42.1258248 32.3456193,40.5079416 C38.815415,38.633927 44.3319354,30.2915912 42.4301834,23.6634891 C40.1261684,15.6350949 31.4011411,10.913927 23.2943033,12.8256788 C23.2047338,12.8513723 23.1607488,12.864219 23.0711793,12.8899124 C23.1343578,13.9433431 23.1703455,14.8964088 23.0671807,15.7852409 C22.3010417,20.1884526 23.2383223,24.363635 24.4275172,28.2489635 C25.7654613,32.6216642 26.667554,37.1324672 27.2185662,41.7966277 C27.2761466,41.994146 27.3049368,42.0921022 27.3633169,42.2896204 C29.2762651,48.8029051 26.8442937,54.7782336 24.1572093,60.7623942 C22.6689163,64.2302044 19.5035948,66.2872847 16.5941861,68.3965547 C15.2058591,69.483708 10.6202215,68.9007883 9.49900354,67.5414453 C7.9635267,65.6778686 5.9642079,63.8231241 7.07982779,60.7567737 C8.62410163,60.4709343 9.28787548,61.4529051 10.0660104,62.0607153 C11.1408441,62.9013723 12.0509341,63.9066277 13.2041411,64.6180146 C15.2370485,65.9115182 16.7781234,65.3165547 17.7034082,63.0852409 C19.9122556,57.5410803 20.9143142,51.953562 19.9818319,46.2287445 C19.1501153,41.1213723 18.3263959,35.9497664 17.5794504,30.8327591 C16.8796888,26.0329051 16.5494014,21.0419562 17.5106738,16.1401314 C10.4706725,22.1050219 5.37560845,33.1098394 5.28204033,33.5715182 C4.82699537,35.5507153 4.48471199,37.4945839 3.12757439,39.2264818 C2.34064251,40.1289635 2.43581008,41.634438 3.44906485,42.4734891 C4.27518338,43.1575766 5.42599128,43.2924672 6.44404441,42.9167007 C7.6612297,42.4654599 8.49294632,41.5091825 8.55692452,40.1948029 C8.69687684,39.5034891 8.45056076,38.7182336 8.59131281,38.0261168 C8.57691771,37.6005693 8.99677466,37.0361168 9.4310267,36.9004234 C9.7565158,36.7976496 10.451479,37.1188175 10.6514109,37.3789635 C12.5115771,39.9226131 10.0476166,43.8898394 6.47923243,44.5249489 C2.47339728,45.2371387 -0.778294823,42.3297664 0.163784196,38.5632701 C0.558049864,36.813708 0.848350954,35.0978686 1.53211798,33.474365 C4.79260708,24.4591825 14.7436166,16.1602044 18.8998005,11.0070657 C20.9782924,8.42728467 24.1732038,1.52779562 29.4929913,0.140350365 C29.7185144,0.076919708 30.0567992,-0.0178248175 30.3087134,0.0183065693 C30.4214749,-0.0130072993 30.5894177,0.154 30.9820839,0.257576642 C30.6653918,1.30618978 29.7664981,1.73575182 28.950776,2.10910949 C27.0506234,2.97947445 24.6298482,6.54845255 23.855712,8.48589781 C23.7717406,8.61677372 23.7717406,8.61677372 23.8005308,8.71553285 C25.9765894,7.87166423 28.1574463,7.46378102 29.7217134,7.44932847 C30.3079136,7.39071533 30.9596916,7.53524088 31.6202665,7.34173723 C35.9164027,6.08356204 39.3432351,7.86845255 42.5701357,9.66217518 C48.6688578,12.8112263 51.4263183,17.994073 50.8545131,24.3764818 C50.4458523,28.9386715 49.2654545,33.4157518 46.1537147,37.3621022 C45.3683823,38.3231971 44.0728237,39.1076496 42.942009,40.0623212 C43.2403074,40.2999854 43.2674981,40.3987445 43.2674981,40.3987445 C48.1298414,41.6095474 49.8900417,44.8894745 49.8452569,49.2549489 C49.8036711,53.3948029 47.8331425,56.7068467 44.274355,58.9180876 C41.9855349,60.3408613 39.5407678,61.7467737 37.2143605,62.9792555 C35.2006466,64.0471387 32.9422161,64.7713723 30.5326371,63.9909343 C30.1703605,64.313708 28.774836,60.0052409 31.3139708,60.4291825 C32.6503155,60.6756788 34.321746,61.684146 35.2134422,61.2072117" id="Fill-1" fill="#E9E2D7" mask="url(#mask-2)"></path>
                    </g>
                    <path d="M78.1464943,55.3196423 C77.7602259,56.463 78.3832136,57.6914672 79.4796401,58.0696423 C80.7152191,58.4943869 82.265091,58.7842409 83.535858,58.3811752 C84.8074248,57.9797153 84.2460161,56.5272336 84.1236578,55.5002993 C83.8781414,53.4440219 81.9356033,51.9875255 79.9282872,52.6772336 C78.9758117,53.0048248 78.4863785,54.3135839 78.1464943,55.3196423 M77.3683594,60.6887664 C72.8970828,60.072927 72.1901237,56.7544599 72.8650937,53.8414672 C73.5944452,50.7012482 75.4378172,49.6389854 78.7654834,49.6751168 C80.9399425,49.6992044 82.7313322,50.4362847 84.4419493,51.413438 C85.8902559,52.2412482 86.2077477,53.6471606 86.5500311,55.1510292 C86.6635924,55.652854 86.6467981,56.0784015 86.6755883,56.7054818 C87.3465597,56.6573066 88.9947981,56.3056277 89.5074234,56.1667226 C90.6382381,55.8600073 92.7023349,54.7110292 93.3924997,53.7154088 C93.9107232,52.9686934 94.6464725,52.1746058 95.4709916,51.2568686 C96.1443621,50.6884015 96.3698853,52.2500803 95.5829534,53.8647518 C94.8951877,55.2754818 92.3824439,57.583073 91.0588948,58.0302993 C89.6441768,58.5080365 87.2074071,59.5389854 86.8227381,59.8384745 C85.9054507,60.7891314 85.9286428,62.3668686 85.5623676,63.7189854 C84.2212245,68.6778175 80.3913294,72.3776715 75.8480774,74.0798613 C74.2814112,74.6675985 68.0267422,74.3400073 66.3361183,73.9240949 C60.9555515,72.3311022 56.1004057,64.7924891 56.0636183,57.5694234 C55.9892436,54.1851168 57.4943308,50.5984745 59.9111074,47.7497153 C60.5476905,45.6749708 63.625042,44.4697883 65.500403,43.5793504 C69.9948717,41.5062117 74.1894425,41.9799343 78.4535896,43.4075255 C80.2217872,44.0490584 82.2530951,44.4713942 84.0732749,45.2711022 C85.3224493,45.8202993 82.9392613,47.8540949 82.0371687,47.4301533 C80.1690052,46.8070876 75.1978989,44.8094234 72.6819561,45.4180365 C68.6329357,46.3967956 66.9759003,50.5278175 66.9383131,54.9888394 C66.8895297,60.8268686 69.8085351,67.4116131 73.9983076,68.8151168 C76.2127531,69.5409562 78.5911428,68.8745328 80.2977613,67.2847518 C82.0411673,65.662854 83.6686128,63.8442409 83.6486196,61.3142409 C81.3350079,61.1151168 79.2581155,60.9754088 77.3683594,60.6887664" id="Fill-4" fill="#E9E2D7"></path>
                    <path d="M114.330246,102.134438 C115.645798,102.279766 116.341561,101.505752 116.771814,100.471591 C117.531555,98.424146 118.194529,96.3983796 118.761536,94.394292 C118.889493,93.423562 118.479232,92.4576496 118.609588,91.4869197 C118.945473,89.0685255 119.115016,87.8585255 119.461298,85.4393285 C119.510881,84.5898394 119.414913,83.5604964 119.386123,82.3079416 C113.984764,90.8309343 112.158986,98.3856058 114.330246,102.134438 M97.5863508,14.2026861 C103.083678,17.3461168 105.810749,18.9383066 111.218506,22.1588175 C111.79351,21.2908613 112.081412,20.8580876 112.660415,19.9925401 C114.031948,18.0502774 115.393884,16.0100584 116.915765,14.1545109 C117.479573,13.4214453 118.504024,12.2780876 119.587655,12.8200584 C120.987978,13.5210073 119.695618,14.6828321 119.262965,15.4961898 C117.964208,17.933854 116.435129,20.3161168 114.918046,22.6999854 C114.401422,23.6377956 113.845611,24.553927 114.413418,25.5214453 C114.842871,26.2504964 115.13877,27.0445839 114.132713,27.6708613 C113.214626,28.2417372 112.288542,28.8672117 111.14973,28.3565547 C110.686687,28.1132701 110.454766,27.9904234 109.990924,27.7471387 C105.679593,24.614146 101.234708,21.6353139 96.9553658,18.5384526 C96.1556383,18.0759708 95.5382486,17.363781 94.5169966,16.4227591 C95.7421792,15.5331241 96.3555702,15.0891095 97.5863508,14.2026861 M93.3134067,62.5850219 C95.7301832,58.2508613 99.1218277,53.4012263 100.696491,48.0272847 C102.689412,41.2249489 102.420704,36.3110803 104.513591,33.2567737 C106.646464,30.143854 111.2377,30.5332701 115.389085,31.8283796 C117.094104,32.3374307 118.938276,32.3294015 120.712072,32.7011533 C122.588232,33.0953869 123.629478,34.3720292 123.759033,36.2155328 C123.989355,39.4866277 122.988896,43.1575766 121.211901,46.3210803 C120.890411,47.0107883 120.697676,47.7807883 120.485749,48.4488175 C120.062693,49.7872847 120.435366,50.5524672 121.799701,51.2349489 C125.364087,52.8624672 128.550201,55.3884526 128.507815,59.0867007 C128.483824,61.1550219 128.58219,62.5256058 128.460631,63.0707883 C128.409449,63.393562 130.647886,62.4501314 132.290527,59.1292555 C133.533303,56.6185255 134.635328,55.4687445 136.401126,52.1334161 C137.583923,49.9430511 138.117341,49.1216642 138.986645,48.9723212 C140.941179,48.6383066 137.409582,55.4029051 136.920949,56.4282336 C135.888501,58.8016642 134.400208,61.0281606 133.01428,63.1807883 C131.113328,66.1323212 130.07928,65.9075036 128.399852,68.7321752 C127.560138,70.143708 127.723283,71.063854 127.839243,72.8134161 C128.151937,77.5450219 127.328217,80.0292555 126.809194,83.583781 C126.714826,84.2301314 126.516494,84.8973577 126.52769,85.523635 C126.782803,89.1407883 125.574415,92.3653139 124.041337,95.5432701 C122.479469,98.7774307 120.588114,101.958599 118.292896,104.780058 C116.544691,106.930277 113.396164,106.852394 111.901473,104.330423 C111.257693,103.310715 110.709879,101.90962 110.601116,100.715679 C110.354001,98.0090365 110.375593,95.0791825 110.451567,92.334 C110.540337,89.164073 111.668753,86.1892555 113.285802,83.4392555 C115.392284,79.8582336 117.274843,76.1158248 119.545269,72.5227591 C120.732864,70.7169927 120.492946,68.7602774 120.758456,66.8348759 C121.183111,63.7572847 121.346255,60.644365 120.856822,57.4904964 C120.818435,57.2881606 120.907205,57.1661168 120.760855,56.9854599 C120.264224,56.1383796 119.905146,54.8456788 119.159001,54.4650949 C117.943415,53.9680876 117.144487,55.0672847 116.418334,55.9432701 C114.049542,58.5061898 112.873942,59.7916642 110.537938,62.3698394 C110.082893,62.8829051 109.502291,63.3172847 108.900896,63.6512993 C107.159089,64.9568467 106.536101,64.9793285 105.027815,63.8303504 C103.690671,62.8106423 103.360384,61.763635 104.248881,60.104 C104.831882,59.1396934 105.546839,58.254073 106.243401,57.2688905 C107.848454,54.5807153 108.656979,53.2390365 110.288423,50.5580876 C111.023373,49.1497664 111.950257,47.6531241 112.266149,46.2785255 C112.713997,44.3290365 114.185495,42.2004964 115.089187,40.3746569 C115.890514,38.754365 115.106781,37.2007153 114.339843,35.9096204 C113.803225,35.0047299 112.859547,35.3596204 112.016634,35.7353869 C109.889359,36.5752409 107.879644,40.4388905 105.196558,46.1396204 C102.738995,51.3602044 99.1754094,58.0220292 95.8509421,62.8652409 C95.5942296,63.2369927 95.044017,64.3080876 94.6785416,64.1788175 C93.8580211,63.5172117 92.8695579,63.633635 93.3134067,62.5850219" id="Fill-6" fill="#E9E2D7"></path>
                    <path d="M139.071816,14.6389124 C140.870403,13.6135839 142.61301,12.9150438 144.673108,13.5252628 C145.026587,13.573438 145.621584,13.6866496 145.879896,13.8552628 C146.939535,14.7296423 147.168257,19.1713942 146.159801,20.0602263 C144.448384,21.5809562 142.72817,23.0037299 140.887997,24.3494234 C140.38017,24.7460657 139.343723,25.0278905 138.897475,24.783 C138.524003,24.5766496 138.304078,23.582635 138.277687,23.1137299 C138.247297,22.5637299 138.522403,21.8202263 138.646361,21.1746788 C138.812704,18.5603723 138.897475,17.253219 139.071816,14.6389124 M158.573971,47.4004453 C159.863132,47.103365 160.219011,47.7585474 159.994287,48.7493504 C159.828744,49.4759927 159.45927,50.3881095 159.023418,51.1821971 C157.887005,53.2240219 152.555222,59.4562847 149.816155,61.5655547 C148.248689,62.7562847 146.138208,63.4636569 144.214064,64.2601533 C142.40588,65.0092774 140.64488,64.2079635 140.042685,62.3612482 C139.255753,59.9444599 137.230843,55.0161387 137.336407,52.3889854 C137.527542,48.053219 137.628308,45.8853358 137.841035,41.5495693 C137.813045,40.7185474 137.785854,39.8891314 137.994583,39.123146 C138.599177,37.3502993 138.352061,35.1976715 140.805625,34.2686934 C141.136713,34.2140949 141.239877,33.4657737 141.770097,32.5456277 C142.75936,33.7379635 143.663052,34.4236569 144.141289,35.2835839 C145.004195,37.1238759 145.799124,39.1046788 146.204586,41.0983285 C146.953131,44.782927 147.593713,50.4611752 148.197507,54.2196423 C148.360651,55.2361387 148.794104,57.2498613 148.989237,58.4694964 C151.529971,57.1205912 157.867012,49.3780365 158.573971,47.4004453" id="Fill-8" fill="#E9E2D7"></path>
                    <path d="M159.695989,6.48269343 C164.955797,9.97619708 167.562909,11.7410146 172.729149,15.3035693 C173.353736,14.4757591 173.667229,14.0614526 174.295015,13.2352482 C175.77771,11.3861241 177.256406,9.4390438 178.883052,7.68546715 C179.488446,6.98933577 180.576075,5.9150292 181.61812,6.52685401 C182.96646,7.31692701 181.608523,8.39283942 181.128687,9.17568613 C179.688377,11.5242263 178.020946,13.8013066 176.367109,16.0840073 C175.795304,16.9848832 175.186711,17.8632774 175.69054,18.8653212 C176.07121,19.6208686 176.314327,20.4326204 175.27708,20.9922555 C174.331003,21.5029124 173.372129,22.066562 172.274104,21.4844453 C171.829455,21.2106496 171.607931,21.0733504 171.162482,20.8003577 C167.077474,17.3959781 162.854113,14.1353212 158.800294,10.767073 C158.035755,10.2532044 157.467149,9.50408029 156.513074,8.49962774 C157.783041,7.69028467 158.420424,7.28721898 159.695989,6.48269343 M169.245535,26.0378029 C170.691443,25.8434964 172.289298,25.9430584 173.642437,26.8053942 C174.525337,27.5191898 175.784907,27.6685328 176.971703,28.1406496 C179.565219,29.0559781 180.672042,30.7878759 180.311365,33.3210876 C180.26658,34.7775839 179.522034,35.077073 178.220877,34.5150292 C177.593891,33.9722555 176.841347,33.3419635 176.295933,32.5824015 C175.368249,31.456708 174.377387,30.7541533 172.594794,30.8850292 C172.190132,34.6740073 170.709037,38.2534234 171.276044,42.0624745 C171.81426,45.6732044 171.842251,47.5432044 172.328485,51.5746642 C172.765936,55.2038613 174.812439,56.2235693 176.254347,55.5153942 C181.023922,53.436635 187.474525,49.6508686 190.234384,45.8121095 C190.999723,44.7932044 191.231644,44.8694818 192.662357,45.847438 C192.208911,46.726635 191.661098,47.7198467 190.873366,48.5356131 C186.890723,53.1347372 178.666326,57.2745912 175.728127,58.1786788 C173.943935,58.7278759 170.519501,58.4637153 167.948377,58.0991898 C160.342969,56.9879489 158.601962,50.6207956 158.298065,43.2805036 C158.208496,42.6694818 158.132522,42.1612336 157.978974,41.8721825 C156.870552,38.917438 157.446356,36.0205036 158.995428,33.5049562 C159.972695,31.6983869 161.470584,30.337438 162.946881,28.7789708 C163.623451,27.9543723 164.426377,27.2180949 165.32767,26.3661971 C166.895136,26.2321095 167.678869,26.1662701 169.245535,26.0378029" id="Fill-10" fill="#E9E2D7"></path>
                    <g id="Group-14" transform="translate(188.735695, 0.346058)">
                        <mask id="mask-4" fill="white">
                            <use xlink:href="#path-3"></use>
                        </mask>
                        <g id="Clip-13"></g>
                        <path d="M22.2124319,32.6784307 C25.5368992,31.3423723 28.7318106,26.9439781 28.5014891,24.1763139 C28.407921,23.0482117 27.3618774,21.2777737 26.6589169,20.9244891 C23.4152221,22.4412044 18.854376,28.9601095 17.6323924,33.625073 C18.7336172,33.5190876 20.8073106,33.1176277 22.2124319,32.6784307 M29.3244087,38.0459489 C31.6948011,40.014708 35.2775804,42.8225182 37.5456076,44.7158029 C39.4129714,46.2758759 41.3523106,47.5276277 42.6286757,45.4777737 C43.3116431,44.2958759 45.5556785,41.6639051 46.232248,40.4884307 C47.0231785,39.1122263 48.8881431,35.5729562 50.1837016,36.9363139 C50.5371812,37.3265328 49.4199619,40.5912044 48.624233,41.8790876 C47.0343747,44.454854 44.2241322,48.2414234 42.0944578,50.2607664 C39.2562248,52.9521533 32.7736335,50.7320803 29.3995831,49.3968248 C26.1590872,48.114562 24.0701989,45.7724453 21.9781117,43.4455839 C20.4402357,41.734562 19.3166185,39.664635 17.9146962,37.7320073 C17.6459877,37.2414234 17.2781131,36.8632482 16.8982425,36.3831022 C14.6893951,39.9063139 12.6069046,43.3243431 10.6675654,46.8387226 C9.55674387,48.8179197 9.70069482,49.1141971 10.3804632,53.4901095 C7.80294142,54.9016423 4.41449591,54.7635401 2.87582016,52.765073 C1.86176567,51.5341971 1.41711717,49.8022993 1.16120436,48.3016423 C0.239918256,42.9068248 0.140752044,37.4325182 1.40512125,31.9116423 C2.15846458,28.625292 1.65703542,25.1534672 1.85136921,21.8197445 C1.81778065,21.5122263 1.67223025,21.2183577 1.63784196,20.9116423 C1.97132834,13.7303285 2.69428202,13.255 5.45654087,6.55142336 C5.93077929,5.57105839 6.55696594,4.31689781 8.19560763,3.99332117 C8.9649455,3.84237226 9.81825477,2.89894161 10.3204837,2.12572993 C11.0010518,0.817773723 12.1382643,0.417116788 13.6321553,0.459671533 C17.2949074,0.563248175 20.4730245,1.89047445 23.4983937,3.59346715 C21.8517548,5.90266423 20.6089782,5.88981752 13.8280886,3.74843066 C13.2978692,5.4530292 12.6572875,7.16886861 12.2470272,8.8630292 C11.2801567,13.0920073 10.0285831,17.3996715 9.64311444,21.7370438 C8.98893733,29.0958029 10.3388774,29.9059489 9.11529428,37.2775547 C8.81619619,38.6537591 8.94655177,39.8822263 9.20646322,41.3025912 C9.49116621,40.8585766 9.89662807,40.505292 10.0725681,40.0733212 C11.4608951,36.4095985 16.4056104,25.6697445 20.6057793,21.1525182 C23.1705054,18.4362409 27.0859714,16.6465328 30.8974728,16.3390146 C34.3722888,16.0595985 37.6247807,18.9155839 37.8583011,22.0967518 C38.2637629,27.6385036 32.9983569,35.6596715 26.9220272,35.7728832 C28.0072575,36.8134672 28.6158501,37.4855109 29.3244087,38.0459489" id="Fill-12" fill="#E9E2D7" mask="url(#mask-4)"></path>
                    </g>
                    <path d="M254.897952,30.5616131 C254.309353,31.6118321 254.690023,32.9358467 255.690482,33.5139489 C256.816499,34.1651168 258.276801,34.7416131 259.591553,34.5874526 C260.907105,34.4316861 260.628,32.8989124 260.699975,31.8671606 C260.843127,29.802854 259.215681,28.0043139 257.127593,28.303 C256.13833,28.4443139 255.416176,29.6374526 254.897952,30.5616131 M253.14255,35.6882555 C248.893598,34.2381825 248.819223,30.8458467 250.019614,28.112708 C251.313574,25.1659927 253.310493,24.4706642 256.550989,25.1346788 C258.668668,25.5690584 260.280119,26.6305182 261.769211,27.9135839 C263.027982,29.0007372 263.078365,30.4411752 263.132747,31.9835839 C263.150341,32.4966496 263.055173,32.912562 262.967203,33.5324161 C263.630977,33.612708 265.307206,33.5781825 265.832627,33.5380365 C266.993031,33.4505182 269.222672,32.7118321 270.081579,31.8639489 C270.726959,31.2280365 271.592264,30.5865036 272.568732,29.8413942 C273.331672,29.4094234 273.262895,30.9855547 272.19286,32.4243869 C271.258778,33.6801533 268.37656,35.4722701 267.001029,35.6617591 C265.531129,35.8640949 262.960005,36.4165036 262.528952,36.6373066 C261.457317,37.3984745 261.18621,38.952927 260.579217,40.2119051 C258.347177,44.8286934 253.919086,47.7400803 249.175102,48.552635 C247.53806,48.8336569 241.496119,47.3297883 239.926253,46.6015401 C234.973541,44.0185474 231.637877,35.6970876 232.940634,28.5960657 C233.495644,25.2591314 235.626918,22.0209562 238.513135,19.6804453 C239.518392,17.7638759 242.743693,17.1624891 244.738214,16.6413942 C249.506989,15.4554818 253.512824,16.712854 257.409896,18.9208832 C259.015749,19.8835839 260.9215,20.683292 262.549745,21.8121971 C263.667764,22.5862117 260.963886,24.1342409 260.160959,23.5481095 C258.453541,22.5838029 253.971868,19.682854 251.403143,19.8048978 C247.270951,20.0016131 244.887763,23.7456277 244.024057,28.1183285 C242.893243,33.843146 244.519888,40.8614672 248.347384,43.0317591 C250.372294,44.163073 252.817061,43.9591314 254.777993,42.7202263 C256.780511,41.4548248 258.706255,39.9774526 259.155702,37.4884015 C256.935658,36.8565036 254.93394,36.3265766 253.14255,35.6882555" id="Fill-15" fill="#E9E2D7"></path>
                    <path d="M311.641099,25.7433723 C307.497711,28.0437372 303.631028,28.8346131 300.312959,27.7924234 C299.649985,27.5836642 298.211275,26.8602336 297.546701,26.4483358 C297.324377,26.9622044 297.213215,27.5788467 297.102053,28.0935182 C296.547842,31.0779708 295.205099,33.755708 293.476888,36.2270949 C291.616722,38.8879708 289.779748,41.6973869 287.735644,44.1872409 C286.767174,45.3281898 285.257288,46.2708175 283.855366,46.9075328 C281.268248,48.1785547 276.487476,47.3467299 274.912813,45.1194307 C273.896359,43.495927 272.108169,41.7921314 271.189282,40.1702336 C270.844599,39.5624234 270.605481,38.8478248 270.263197,38.3427883 C268.315061,35.3109635 268.626155,31.4866569 268.007166,28.9389927 C267.365784,26.2949781 267.278614,23.4020584 268.648547,20.5822044 C268.857276,20.0619124 269.176367,19.5376058 269.161972,19.0237372 C268.886066,17.1794307 271.338031,16.6976788 272.789536,16.4568029 C279.035408,15.1673139 282.327087,18.5451971 281.976006,23.4743212 C281.881639,24.8079708 281.463381,26.1584818 281.373012,27.4969489 C281.105903,31.5139562 280.515704,35.4346131 281.456184,39.4323504 C281.744885,41.0743212 281.888836,41.8949051 282.175139,43.5368759 C282.290299,43.9471679 282.732549,44.3518394 283.176397,44.9628613 C286.054617,40.9073139 289.195147,37.2781168 291.372805,32.8411825 C292.462833,30.6749051 294.771647,25.4205985 294.43976,25.4214015 C294.106273,25.4222044 292.44204,24.8095766 291.0937,22.6569489 C290.41873,21.426073 290.515497,19.4709635 291.516756,18.5387737 C294.187046,16.0553431 298.280051,19.4035182 298.328835,22.436146 C298.336032,22.8400146 298.550359,23.7738102 298.883046,23.9801606 C301.880425,25.6333723 305.73751,26.5848321 310.004857,23.6605985 C310.567065,23.2567299 311.819438,22.6882628 312.575981,22.8777518 C314.069072,23.2487007 312.31287,25.3419124 311.641099,25.7433723" id="Fill-17" fill="#E9E2D7"></path>
                    <path d="M327.345188,37.8577445 C327.684273,37.5598613 327.917793,37.1559927 328.153713,36.6493504 C327.86901,32.0068686 328.890262,27.6124891 331.055924,23.1611022 C331.248658,22.7564307 331.345425,22.553292 331.53816,22.1494234 C331.21507,21.8290584 330.738432,21.4091314 330.12904,20.9667226 C329.592423,20.5765036 329.04221,20.1051898 328.494397,19.7767956 C325.753731,18.1412482 322.35249,19.4885474 321.719905,22.353365 C321.473589,23.2735109 321.337635,24.1960657 320.978558,25.2165766 C319.187968,30.1111752 318.756115,35.6055547 319.058412,40.5041679 C319.099998,41.1842409 319.458276,42.0570146 319.757374,43.1971606 C322.952285,41.8362117 325.301885,39.9517591 327.345188,37.8577445 M343.157401,24.1920511 C342.710353,28.2620511 341.760277,32.2654088 340.591075,36.2238029 C339.542633,39.7751168 340.486311,43.2236569 341.085307,46.6505182 C341.336421,48.2089854 343.957928,48.7790584 345.556584,48.5253358 C348.140503,48.1150438 350.318961,46.9066496 352.175128,45.0856277 C353.658623,43.6299343 355.641148,42.0000073 357.27739,40.4559927 C357.741232,40.0738029 358.800071,39.0107372 359.196736,39.6546788 C359.74375,41.3424161 358.814466,42.1043869 357.89478,42.7651898 C356.832742,43.932635 354.994168,45.3618321 353.84496,46.3213212 C349.829528,49.5787664 345.169515,51.6848248 339.952093,52.2621241 C337.99516,52.4789124 336.198172,51.5772336 334.726673,50.4868686 C331.789274,48.203365 329.71718,45.3513942 328.858273,41.7181825 C328.751909,41.6113942 328.759107,41.4058467 328.762306,41.303073 C327.992168,41.482927 327.291607,41.9895693 326.764586,42.2649708 C326.130402,42.5981825 325.773724,42.542781 325.661762,42.6423431 C323.177808,45.343365 319.969301,44.9684015 317.414172,45.6115401 C314.493567,46.3470146 312.638199,45.413219 311.37463,42.6150438 C309.484074,38.0568686 308.268488,33.2393504 308.833096,28.2740949 C309.052221,26.3446788 310.755641,25.4205182 311.557767,23.8901533 C313.041262,21.4436569 314.981401,19.1111752 316.708013,16.8838759 C317.055894,16.3764307 317.622901,16.0801533 318.077946,15.7814672 C321.025742,14.4060657 323.968739,14.8340219 327.066084,15.4073066 C328.499195,15.673073 329.619613,16.3154088 330.710442,17.1777445 C331.36062,17.8184745 331.904435,18.2504453 332.556213,18.7900073 C332.933684,17.6715401 333.199994,16.5490584 333.692626,15.4354088 C334.781055,13.4184745 339.346699,12.2751168 342.915883,12.952781 C346.59303,13.652927 346.870536,13.9997883 345.927657,15.7814672 C344.564921,18.3580365 343.516479,20.9346058 343.157401,24.1920511" id="Fill-19" fill="#E9E2D7"></path>
                    <path d="M399.438545,50.8910584 C397.689541,49.8681387 393.362215,44.8539051 392.641661,49.9508394 C392.446527,51.3270438 394.116358,52.5868248 395.627044,52.7498175 C397.139328,52.9128102 398.608428,52.4543431 399.438545,50.8910584 M421.727751,46.9029562 C418.651999,51.6779197 410.624334,55.4139051 406.970379,53.9389416 C406.658485,53.7976277 404.498421,55.4034672 402.088042,56.4721533 C398.293335,58.2096715 394.305894,57.0494526 390.615951,54.8101095 C387.744929,53.0677737 387.706542,48.9327372 389.311596,47.1285766 C392.267388,42.7719343 396.982582,45.3332482 400.554965,48.7384307 C400.926838,48.3658759 403.663506,36.9636131 403.980198,35.045438 C404.394457,32.5226642 404.551203,30.035219 403.358809,28.6590146 C402.464714,27.624854 399.555305,29.5791606 397.689541,31.3455839 C390.233681,38.4080657 388.870946,38.6906934 387.229105,43.7177737 C386.355803,46.394708 385.067442,49.2908394 384.893901,52.0713504 C384.795534,53.6635401 384.612397,55.2677737 384.554016,56.7933212 C384.360482,61.7674088 383.439196,59.8098905 382.128443,64.4844891 C381.269536,67.5500365 380.166711,69.1028832 379.163053,72.0062409 C378.755992,73.0018613 378.224973,73.8931022 377.76273,74.6687226 C377.253304,75.5222263 375.262782,76.2344161 374.176752,75.9012044 C373.018747,75.5463139 371.842348,74.8774818 371.532853,73.5101095 C371.383304,72.774635 371.474473,72.035146 371.605628,71.3478467 C372.163838,68.4260219 372.621282,66.8699635 373.098719,63.8895255 C373.765692,59.7344161 373.528973,59.995365 374.349493,55.7663869 C374.701373,53.9517883 375.281176,54.2593066 375.605865,52.4671898 C376.920617,45.1967518 377.886688,37.3755109 379.185446,30.0577007 C379.716465,27.0628102 380.574572,24.1610584 381.411887,21.2681387 C381.874929,19.6663139 384.062984,19.4567518 385.700826,19.9039781 C386.898018,20.2299635 387.410643,20.7012774 387.193117,22.0076277 C386.876425,23.9137591 386.159869,34.105219 386.086294,36.0619343 C386.415782,36.0932482 385.761605,38.3044891 386.081496,38.4385766 C388.03763,36.4762409 389.021294,35.4974818 390.995822,33.5455839 C396.186053,28.3804015 402.471912,24.134562 407.155116,24.9519343 C409.99095,25.4473358 412.547679,27.0475547 412.652443,33.4877737 C412.746811,35.2831022 412.792395,36.1799635 412.883564,37.9744891 C412.969135,40.8882847 409.926172,48.4935401 408.236348,51.604854 C411.83912,52.6631022 417.625149,49.4690876 419.878781,45.824635 C420.095507,45.0233212 422.585858,45.4617153 421.727751,46.9029562" id="Fill-21" fill="#E9E2D7"></path>
                    <path d="M432.372684,11.2970803 C434.391996,10.8554745 436.260959,10.710146 438.045951,11.9089051 C438.369841,12.059854 438.904059,12.3472993 439.099192,12.5849635 C439.851736,13.7363504 438.75291,18.0440146 437.526928,18.5916058 C435.442038,19.5318248 433.379541,20.3764964 431.223475,21.110365 C430.62288,21.3367883 429.550446,21.2966423 429.197766,20.9289051 C428.903466,20.6213869 428.988237,19.6056934 429.101798,19.150438 C429.235353,18.6156934 429.719988,17.9894161 430.027883,17.409708 C430.961965,14.9632117 431.430605,13.7411679 432.372684,11.2970803 M441.267253,48.4024088 C442.586004,48.5051825 442.731554,49.2366423 442.222928,50.1158394 C441.850255,50.7589781 441.226467,51.520146 440.574689,52.1472263 C438.884865,53.7562774 431.945629,58.1129197 428.706733,59.3068613 C426.857763,59.9748905 424.63532,60.019854 422.564026,60.2053285 C420.618289,60.379562 419.17638,59.0876642 419.149989,57.1462044 C419.116401,54.6041606 418.64696,49.2936496 419.526661,46.8158394 C420.993361,42.7345985 421.732309,40.6951825 423.220602,36.619562 C423.439728,35.8182482 423.658853,35.0185401 424.085907,34.3489051 C425.187932,32.8378102 425.590195,30.7092701 428.205304,30.5551095 C428.537191,30.6016788 428.857082,29.9183942 429.636816,29.1981752 C430.226215,30.6321898 430.88599,31.5563504 431.086722,32.5214599 C431.363428,34.5351825 431.534569,36.6637226 431.329839,38.6886861 C430.952368,42.4310949 429.879933,48.0427007 429.340917,51.81 C429.194567,52.829708 429.011429,54.8811679 428.836289,56.1040146 C431.660127,55.5756934 440.005283,50.0789051 441.267253,48.4024088" id="Fill-23" fill="#E9E2D7"></path>
                    <path d="M456.704234,66.0971533 C455.957288,66.5909489 454.788087,67.640365 455.001614,68.9306569 C455.215941,70.2217518 456.18841,72.4329927 457.297632,72.680292 C457.900626,72.8151825 458.568399,72.9083212 459.116212,72.9035036 C462.138382,72.5076642 465.560416,71.7882482 466.709625,69.1779562 C466.947944,68.4890511 466.650445,64.7691241 465.053389,63.2170803 C462.141581,63.409781 459.192186,64.4471533 456.704234,66.0971533 M460.085482,29.1949635 C460.901204,27.769781 461.502599,26.6424818 461.972839,25.5545255 C462.415888,24.5308029 462.102395,23.4886131 460.959584,22.7683942 C460.436562,22.4681022 459.783984,22.2521168 459.241769,22.0545985 C457.384802,23.5110949 457.388001,23.5127007 458.245309,25.2245255 C458.985057,26.8118978 459.352931,27.6059854 460.085482,29.1949635 M443.231224,50.0660584 C441.535802,51.6036496 440.246641,52.8240876 438.732757,53.3186861 C438.268915,53.4543796 437.37402,53.5250365 437.435599,53.1187591 C437.528367,52.5077372 438.998266,50.860146 439.386134,50.5036496 C442.130799,47.8066423 449.469899,39.7116058 452.28254,37.0515328 C452.932719,36.5344526 450.72707,32.7270073 450.526339,31.8606569 C449.727411,28.3944526 449.308354,26.0338686 448.740547,22.399854 C448.519822,20.9064234 449.99292,19.5791971 450.505546,19.2451825 C452.046621,18.2439416 458.088562,19.350365 460.319002,20.4648175 C462.548643,21.580073 465.100573,24.5637226 464.355227,27.019854 C464.058528,27.9994161 463.518712,29.1692701 462.898923,30.1046715 C461.838484,31.5884672 461.796899,33.1477372 462.76137,34.7816788 C464.1409,37.0322628 464.824667,38.1587591 466.184204,40.4141606 C470.553915,47.5874453 472.052604,53.2271533 472.049405,60.2454745 C474.528561,60.0937226 477.849829,59.0724088 479.954712,55.8213869 C480.222621,55.0361314 482.686581,55.6375182 481.736505,57.0185401 C479.348519,60.5256934 475.364276,62.6686861 472.998682,62.8389051 C471.97663,62.9553285 471.789494,63.2540146 471.638346,64.1468613 C471.216889,66.6318978 470.454749,69.1570803 468.596982,71.4205109 C465.603602,75.0384672 459.420108,77.6150365 454.855264,77.2617518 C451.026968,76.9662774 446.204611,73.5129197 446.973949,69.8548175 C447.217866,68.6945985 448.332686,67.5777372 449.709017,66.5580292 C453.114257,63.899562 457.427987,61.3045255 461.919257,60.9681022 C462.474268,60.9640876 463.046873,60.8605109 463.728241,60.7754015 C460.3262,53.5162044 457.569539,45.9743796 454.152303,38.7208029 C452.418494,40.3065693 444.59396,48.830365 443.231224,50.0660584" id="Fill-25" fill="#E9E2D7"></path>
                    <path d="M493.394853,50.3013942 C492.703088,50.8899343 492.22805,51.5250438 491.645849,52.1384745 C487.835947,56.463 485.94859,58.6340949 482.209064,62.9947518 C481.616466,63.712562 480.837531,64.0297153 479.910647,63.8916131 C478.886196,63.7398613 478.632682,62.8911752 478.390365,62.012781 C478.124056,61.0484745 478.319189,60.1106642 479.146107,59.3310292 C481.061455,55.3084015 482.276241,51.1243869 484.033242,47.8284015 C485.3328,45.3915401 486.420429,42.7499343 487.613622,40.2640949 C488.11905,38.8975255 488.169433,37.5413942 487.624019,35.1213942 C486.742719,35.6135839 486.302869,35.8600803 485.423169,36.3546788 C484.661028,36.7256277 483.990057,37.2194234 483.268703,37.3904453 C482.788067,37.5044599 482.037922,37.2499343 481.636459,36.9616861 C481.435727,36.8163577 481.393342,35.8648978 481.653253,35.7059197 C482.832851,34.3666496 484.016448,33.0273796 485.56712,32.1859197 C487.750376,31.0505912 494.138599,33.1389854 495.203037,35.2265766 C496.163509,37.1094234 496.353845,39.0476715 496.036353,41.0838759 C495.796434,42.2103723 495.677275,42.7740219 495.437357,43.9005182 C497.054406,43.8266496 497.730975,42.7965036 498.582685,42.0546058 C499.545557,41.2139489 500.492434,40.1524891 501.476899,39.3166496 C502.750865,38.2343139 504.431892,37.7067956 506.189693,38.3611752 C507.337302,38.7875255 508.568083,39.1086934 509.709294,39.6851898 C512.718669,41.2171606 513.542388,43.633146 512.325203,46.4120511 C512.027704,47.103365 511.878155,47.4486204 511.581456,48.1407372 C511.727806,48.3013212 511.801381,48.3816131 511.947731,48.543 C513.62636,47.2438759 515.427346,46.1784015 516.978817,44.7604453 C518.763009,43.1305182 521.124605,42.0786934 523.490199,41.7784015 C526.164488,41.4387664 528.59406,42.8254088 530.646161,44.4015401 C532.499929,45.8251168 532.343182,47.8107372 532.088869,49.7554088 C531.605034,53.4424161 529.888819,56.5288394 527.97747,59.642562 C526.801071,61.5591314 524.301122,69.7473066 523.351846,71.7353358 C523.071142,72.4073796 522.833622,73.2319781 522.697669,73.9040219 C522.250621,76.1265036 524.824944,77.0892044 527.216929,76.1152628 C528.97633,75.4006642 530.718936,74.3665036 532.092068,73.4495693 C533.938639,72.0195693 535.845989,70.3952628 537.89649,69.133073 C538.533873,68.4513942 538.619444,70.7116131 538.327543,70.953292 C536.758478,72.5559197 534.031407,75.1292774 531.950516,76.603438 C527.524824,79.693073 524.281929,80.1322701 520.272095,79.1286204 C517.844922,78.5208102 515.903984,77.3043869 515.352971,74.9462117 C514.3885,70.5815401 515.947969,60.7875255 518.516693,56.6605182 C520.396053,53.6407372 521.698809,50.1287664 523.179105,46.8913942 C523.227888,46.6914672 523.1919,46.3646788 523.093534,45.8106642 C521.805173,46.3438029 520.78712,46.7316131 519.722682,47.3209562 C517.639392,48.3005182 515.516915,49.4904453 513.643954,50.6305912 C512.266023,51.4696423 510.887293,52.6258467 509.806061,53.8535109 C508.081849,55.8816861 506.511184,58.0744599 505.046083,60.2519781 C503.475418,62.5852628 501.336147,64.6816861 498.944962,66.3605912 C497.760565,67.1498613 496.880065,67.0374526 495.905197,66.4248248 C494.843959,65.7575985 494.436898,64.4175255 494.997507,63.3817591 C496.595362,60.1508102 498.525904,56.9921241 499.818264,53.6977445 C500.845114,51.083438 502.951597,48.8095693 502.610113,45.6765766 C502.505349,44.5998613 503.448227,43.4396423 504.243157,41.9309562 C500.348484,44.9611752 496.815287,47.5610292 493.394853,50.3013942" id="Fill-27" fill="#E9E2D7"></path>
                    <g id="Group-31" transform="translate(538.216621, 49.324161)">
                        <mask id="mask-6" fill="white">
                            <use xlink:href="#path-5"></use>
                        </mask>
                        <g id="Clip-30"></g>
                        <path d="M17.292988,24.5935912 C17.6976501,24.3888467 18.0231392,24.0540292 18.3782183,23.6220584 C19.2283286,19.0494307 21.2956243,15.0412555 24.498533,11.2619124 C24.7848354,10.9166569 24.9287864,10.7440292 25.2166883,10.3995766 C24.9775698,10.0093577 24.612894,9.48424818 24.1250602,8.90293431 C23.6940071,8.39067153 23.2701515,7.79811679 22.8119076,7.34446715 C20.5270861,5.07782482 16.8715316,5.54191241 15.5559798,8.16424818 C15.0913381,8.99446715 14.7346597,9.85680292 14.134864,10.7568759 C11.1926665,15.0589197 9.4348654,20.2851241 8.54077003,25.1066569 C8.41601253,25.776292 8.5543654,26.7116934 8.57035995,27.8911825 C12.0259826,27.3620584 14.7842428,26.1175328 17.292988,24.5935912 M36.1009798,15.2668759 C34.6734662,19.1016204 32.7701147,22.7484818 30.6628327,26.2973869 C28.7722768,29.4801606 28.8586474,33.0587737 28.6123313,36.5314015 C28.4803763,38.1051241 30.9099485,39.3095036 32.5389935,39.4620584 C35.1708967,39.7069489 37.5996692,39.075854 39.8620984,37.7727153 C41.671082,36.7305255 44.010285,35.6433723 45.9904104,34.5538102 C46.537424,34.2984818 47.834582,33.5308905 48.0673027,34.2551241 C48.1944594,36.0279708 47.0972332,36.5354161 46.0343954,36.9473139 C44.7092469,37.8152701 42.5595793,38.7418394 41.2000425,39.3865839 C36.470454,41.545635 31.3905847,42.4280438 26.1395738,41.6917664 C24.1690452,41.416365 22.62877,40.095562 21.4523708,38.6719854 C19.1299621,35.7284818 17.7944172,32.4485547 17.8368027,28.7125693 C17.7584294,28.5832993 17.8152101,28.3849781 17.8432005,28.286219 C17.0450725,28.2693577 16.236548,28.5873139 15.6543463,28.7246131 C14.9513858,28.8900146 14.6170997,28.7478978 14.4819458,28.816146 C11.3949975,30.8202336 8.34643624,29.6616204 5.69054114,29.6527883 C2.65237629,29.6423504 1.06731635,28.2781898 0.511505722,25.2511825 C-0.229841689,20.3630073 -0.247435695,15.3905255 1.51116512,10.7167299 C2.19413243,8.89891971 4.08468828,8.42359124 5.24189401,7.13731387 C7.28679728,5.13242336 9.75155749,3.35154745 11.9819975,1.6180438 C12.4450398,1.21256934 13.0720262,1.06483212 13.5902496,0.888992701 C16.8083531,0.284394161 19.5842074,1.42775182 22.4768218,2.75256934 C23.8155657,3.36519708 24.7552455,4.26607299 25.6141529,5.37329927 C26.0947891,6.15534307 26.5226433,6.70935766 27.0296706,7.39424818 C27.671052,6.40344526 28.20527,5.38052555 28.9570139,4.42344526 C30.5132837,2.73651095 35.2636651,2.76220438 38.59533,4.30621898 C42.0285602,5.89921168 42.2156965,6.30468613 40.8593586,7.79811679 C38.9024253,9.95475912 37.2429907,12.1965109 36.1009798,15.2668759" id="Fill-29" fill="#E9E2D7" mask="url(#mask-6)"></path>
                    </g>
                </g>
                <g id="Group-2" transform="translate(156.000000, 84.000000)" fill="#CF6A65">
                    <path d="M0.981314033,9.36029197 C1.09567507,9.43416058 1.24682357,9.54656934 1.28441076,9.69751825 C1.63069278,10.7140146 1.97617507,11.729708 2.35924455,12.7462044 C2.78070095,13.8751095 3.05260831,15.0810949 3.5492391,16.2091971 C3.96909605,17.1494161 4.27699114,18.1289781 4.58488624,19.1077372 C4.89118188,19.9355474 5.12310286,20.7641606 5.4293985,21.5919708 C5.69730722,22.2688321 6.11876362,23.3222628 6.49943392,24.0360584 C6.64818324,23.8843066 6.72335763,23.770292 6.79693256,23.6570803 C7.31675545,22.709635 7.76060422,21.5759124 8.12847888,20.5529927 C8.34920368,19.9106569 8.49475409,19.2305839 8.71547888,18.5874453 C8.86182902,18.019781 9.08335354,17.489854 9.22970368,16.9607299 C9.6343658,15.7121898 10.0014407,14.4636496 10.4061029,13.2544526 C10.7739775,12.1560584 11.1794394,11.0592701 11.4337527,9.88781022 C11.4337527,9.77459854 11.5073277,9.66058394 11.5449149,9.54737226 C11.6936642,9.28160584 11.9183876,9.20532847 12.2574721,9.27759124 C12.4070211,9.31452555 12.5589693,9.38839416 12.7093181,9.46386861 C12.7868917,9.80270073 12.6757296,10.1054015 12.52778,10.370365 C11.8608072,11.7714599 11.5337187,13.2456204 11.0562813,14.7213869 C10.6500198,15.8567153 10.320532,16.990438 9.87668324,18.0880292 C9.65595845,18.6556934 9.50960831,19.2225547 9.32567098,19.8279562 C8.99538351,20.8862044 8.5531342,22.0962044 8.18525954,23.1937956 C7.92774728,23.950146 7.63184809,24.7072993 7.33674864,25.5021898 C6.84811512,25.5431387 6.35948161,25.5086131 5.79567371,25.4371533 C5.64292575,25.1737956 5.49097752,24.9112409 5.37661649,24.6486861 C5.22386853,24.2713139 5.10790804,23.9324818 4.99274728,23.5567153 C4.68325272,22.3515328 4.10824864,20.8468613 3.65000477,19.7179562 C3.03821322,18.3264964 2.53998297,16.9342336 2.07774046,15.5026277 C1.50113692,13.6205839 0.810972071,11.8140146 0.159993869,9.96970803 C0.0832200272,9.7810219 0.0440333787,9.59313869 0.00484673025,9.36751825 C0.37911921,9.17562044 0.679816757,9.21014599 0.981314033,9.36029197" id="Fill-32"></path>
                    <path d="M22.8628986,15.2771679 C22.4206493,16.6389197 21.755276,18.2287007 21.4281875,19.6651241 C22.3310798,19.7719124 23.3083469,19.7646861 24.1728523,19.796 C25.4132297,19.8241022 26.8775308,19.5872409 28.0795213,19.5784088 C28.1171084,19.5776058 28.1171084,19.5029343 28.22987,19.4266569 L27.3861575,17.1311095 C26.9271139,16.0776788 26.2809341,15.0627883 25.8226902,14.0101606 C25.5931684,13.4079708 25.5507828,12.8427153 25.321261,12.2405255 C25.1685131,11.9394307 24.7886425,11.3765839 24.5599204,10.9253431 C23.9689218,12.4011095 23.3043482,13.9531533 22.8628986,15.2771679 M25.4132297,9.40943066 C25.6427515,9.89840876 25.9098605,10.4243212 26.0634082,10.9895766 C26.3345158,11.9683358 26.7543728,12.9085547 27.2118169,13.8110365 C27.5549,14.4878978 27.93637,15.1647591 28.2426657,15.9170949 C28.5481616,16.6694307 28.9296316,17.4217664 29.1607529,18.2503796 C29.4294613,19.0404526 29.8109313,19.7927883 30.1540144,20.545927 C30.6498455,21.5977518 31.1088891,22.6511825 31.5679327,23.7415474 C31.7198809,24.0041022 31.8350417,24.2674599 31.9494027,24.5685547 C32.0645635,24.9073869 31.878227,25.1731533 31.5039545,25.2132993 C31.4655676,25.2141022 31.3895935,25.176365 31.3520063,25.1771679 C30.4131262,25.145854 30.5626752,25.1073139 30.3307542,24.2032263 C30.0220594,23.035781 29.5262283,21.9446131 28.9536234,20.8181168 C27.6756589,20.7892117 26.210558,20.875927 24.9317937,20.8092847 C23.6154422,20.7434453 22.1895281,20.9803066 20.874776,21.0646131 C20.3173659,22.0875328 19.6855812,23.0735182 19.468855,24.2449781 C19.4328673,24.5091387 19.3217052,24.735562 19.2481302,24.925854 C19.175355,25.1900146 19.1769545,25.3401606 18.9138441,25.3803066 C18.6499341,25.4196496 18.3500362,25.5352701 18.1237134,25.3104526 C17.895791,25.0478978 18.118915,24.7821314 18.1924899,24.555708 L20.8139967,17.9340292 C21.1090962,17.0636642 21.3658087,16.1941022 21.6601084,15.3606715 C21.8808332,14.7183358 22.1023578,14.1129343 22.3606698,13.5067299 C22.9892556,11.9546861 23.5794545,10.4419854 24.0185049,8.81607299 C24.6934749,8.5840292 25.1461207,8.8449781 25.4132297,9.40943066" id="Fill-34"></path>
                    <g id="Group-38" transform="translate(37.534060, 1.455547)">
                        <path d="M5.21118447,3.22372263 C5.62064496,2.5789781 6.02770627,1.9350365 6.39957956,1.29109489 C6.54832888,1.06386861 6.58431662,0.874379562 6.80904005,0.759562044 C6.99617629,0.682481752 7.33526076,0.680072993 7.48640926,0.792481752 C7.59917084,0.904890511 7.56478256,1.20678832 7.56638202,1.43321168 C7.56638202,1.54642336 7.45521989,1.66043796 7.41843243,1.77445255 C6.89780981,2.60708029 6.41557411,3.47905109 5.85816403,4.27635036 C5.07683025,5.48956204 4.02518856,5.49678832 3.15268583,4.37109489 L1.25493243,1.81941606 C0.875061853,1.33124088 0.834275749,0.916131387 1.13417357,0.725839416 C1.39568447,0.497007299 1.69718174,0.645547445 2.0386654,1.0959854 L3.89883161,3.64846715 C4.01319264,3.79861314 4.24111499,4.17518248 4.4682376,4.43693431 L5.21118447,3.22372263 Z M4.14914632,22.8157664 C4.90248965,23.0373723 6.06529346,22.689708 6.58751553,22.1573723 C7.03536294,21.7013139 7.29367493,20.9441606 7.40083842,20.339562 C7.54798828,19.7735036 7.20410545,19.0219708 6.86182207,18.4960584 C6.21644196,17.5943796 5.4591,16.6943066 4.5146218,16.0969343 C3.57094332,15.500365 2.58887793,14.9037956 1.75716131,14.1169343 C1.37809046,13.7427737 0.999819346,13.4440876 0.695922888,12.9936496 C0.0505427793,12.0542336 -0.00543814714,9.52664234 1.30131662,8.27167883 C1.86112589,7.70080292 2.64805777,7.39328467 3.43578937,7.23751825 C4.11155913,7.11948905 4.8257158,7.07613139 5.46549782,7.29773723 C6.25722807,7.51934307 7.01137112,7.9280292 7.76551417,8.29978102 C8.03022398,8.44912409 8.14458501,8.75021898 8.11019673,9.09065693 C8.11019673,9.20306569 8.07420899,9.31708029 8.0366218,9.42948905 C7.85428392,10.110365 7.81509728,9.96021898 7.211303,9.58766423 C6.45636022,9.13963504 5.81497875,8.80481752 5.06163542,8.43306569 C4.49462861,8.13518248 3.36701281,8.14321168 2.84319128,8.48686131 C1.98268447,8.98306569 1.53883569,9.96824818 1.54523351,10.9116788 C1.55483025,12.1570073 2.42573351,13.0562774 3.4829733,13.7652555 C4.1251545,14.1763504 4.80652234,14.8130657 5.44870354,15.2225547 C6.42916948,15.8945985 7.26168583,16.6814599 7.94545286,17.620073 C8.40129755,18.2583942 8.63161907,18.9352555 8.59962997,19.7285401 C8.60362861,20.2191241 8.64601417,20.859854 8.42368992,21.3135036 C8.01662861,22.2216058 7.49600599,23.0558394 6.59711226,23.5536496 C5.81177984,23.9743796 4.94887384,24.2072263 3.97000736,24.0249635 C2.69044332,23.770438 1.59641608,23.2124088 0.464001907,22.6543796 C0.0129555858,22.4311679 -0.0278305177,22.1678102 0.232080926,21.7125547 C0.529579564,21.1826277 1.01741335,21.1408759 1.77315586,21.6635766 C2.45372398,22.1493431 3.35901553,22.5580292 4.14914632,22.8157664 L4.14914632,22.8157664 Z" id="Fill-36"></path>
                    </g>
                    <path d="M53.7547733,25.0902117 C53.5652379,24.9031314 53.338915,24.7537883 53.1117924,24.5289708 C53.1101929,24.4157591 53.0726057,24.2656131 53.1085935,24.1138613 C53.2541439,23.3575109 53.2101589,22.5658321 53.1677733,21.8110876 C53.0398169,19.7756861 52.9510471,17.7764161 52.9734395,15.7747372 C52.9702406,15.247219 52.9438496,11.6244453 52.9758387,10.8697007 L53.0774041,9.247 C53.1101929,8.71787591 53.4852651,8.45050365 54.0122856,8.6359781 C54.1258469,8.67291241 54.2010213,8.74758394 54.3145826,8.82145255 C54.3961548,9.65167153 54.4025526,10.4826934 54.3321766,11.3129124 C54.2274123,12.407292 54.2354095,13.5016715 54.2426071,14.5583139 C54.2538033,16.1432774 54.3033864,17.6905036 54.2769954,19.2754672 C54.2530035,21.1623285 54.4537351,23.0475839 54.6176793,24.8959051 C54.3569681,25.1994088 54.0554708,25.0878029 53.7547733,25.0902117" id="Fill-39"></path>
                    <path d="M68.9863037,15.8479635 C69.3925653,14.9013212 69.9875625,14.1048248 70.5457723,13.3091314 C71.0655952,12.4371606 71.5854181,11.5651898 72.1428282,10.693219 L73.4447846,8.75978832 C73.5191593,8.6449708 73.7062955,8.56869343 73.8190571,8.53015328 L74.8714985,8.52212409 C75.3625312,8.82081022 75.477692,9.23511679 75.4808909,9.6879635 C75.4856892,10.3294964 75.5280748,10.9324891 75.495286,11.5370876 C75.4281089,12.7077445 75.3985189,13.8398613 75.5944522,14.9695693 C75.6344386,15.1959927 75.5984508,15.4609562 75.6000503,15.6873796 C75.6480339,17.1583285 75.5824563,18.5923431 75.7056143,20.0255547 C75.8279726,21.1946058 75.7983827,22.3644599 75.8439672,23.5335109 C75.8463663,23.8354088 75.8479658,24.0995693 75.8119781,24.3637299 C75.7775898,24.7796423 75.5536661,24.9313942 75.1394072,24.8976715 C74.8011225,24.8623431 74.6123868,24.6744599 74.6091879,24.2970876 C74.6715666,22.522635 74.5084222,20.7513942 74.6083881,18.9769416 C74.6451756,18.7882555 74.567602,18.562635 74.567602,18.3739489 C74.5572056,17.0154088 74.5468091,15.6576715 74.4628377,14.2991314 C74.4156538,13.0546058 74.5564059,11.7707372 74.5100217,10.5246058 C74.5076225,10.2235109 74.5436102,9.92081022 74.3908623,9.5819781 C74.2781007,9.65905839 74.1285516,9.65986131 74.0533772,9.77387591 C73.8678405,9.96416788 73.7550789,10.152854 73.6063296,10.343146 L70.2266811,15.9146058 C69.9299822,16.4075985 69.6700707,16.9752628 69.4485462,17.5051898 C69.2278214,18.1105912 68.8927356,18.4903723 68.1777792,18.4582555 C67.418038,17.4064307 66.9589944,16.2020511 66.4247764,15.0362117 C65.6994236,13.4946058 64.973271,11.9521971 64.2111307,10.4113942 C64.0583827,10.1102993 63.7936729,9.84774453 63.5657505,9.50971533 C63.3066388,10.1905912 63.3490244,10.8321241 63.3538228,11.5121971 L63.36182,12.492562 L63.5393595,16.4541679 C63.5489563,17.6617591 63.5953405,18.8685474 63.6041375,20.0761387 C63.6521211,21.4716131 63.4737819,22.9064307 63.6345271,24.3011022 C63.6353268,24.3765766 63.5601525,24.4905912 63.5241647,24.6415401 L62.5836851,24.5355547 C62.3917505,24.0465766 62.3885516,23.5182555 62.384553,23.0276715 C62.2997819,21.6691314 62.252598,20.313 62.3557628,18.9905912 C62.4573282,17.3678905 62.2949835,15.8214672 62.0966511,14.2373066 C62.0942519,13.9739489 62.0542655,13.7475255 62.091053,13.5211022 C62.1606293,12.7278175 62.1542315,11.973073 62.1870203,11.1805912 C62.2206089,10.6514672 62.179023,10.1239489 62.1758241,9.59562774 C62.1734249,9.33146715 62.2094127,9.1050438 62.2446007,8.84008029 C62.3181756,8.57511679 63.1818813,8.4940219 63.8584508,8.45066423 C64.2719099,8.40971533 64.4990326,8.63533577 64.7277546,9.08657664 C65.337147,10.2138759 65.7977901,11.4937299 66.4071824,12.6210292 C66.7118786,13.2224161 66.9414004,13.8246058 67.2085094,14.4267956 C67.4772178,15.1421971 67.9338623,15.8182555 68.3521198,16.4943139 C68.3521198,16.5320511 68.4272941,16.5312482 68.5408554,16.6051168 C68.688805,16.3409562 68.8751416,16.112927 68.9863037,15.8479635" id="Fill-41"></path>
                    <path d="M94.9899238,9.69671533 C94.9555356,10.1881022 94.8843598,10.7172263 94.8883584,11.2078102 C94.9299443,11.7730657 94.9339429,12.3391241 94.9379416,12.9051825 L94.9491377,14.5278832 C94.9531364,14.9807299 95.0323094,15.469708 95.0355083,15.9610949 C95.0387072,16.3754015 94.9667317,16.829854 94.9699307,17.2818978 C95.0115165,17.9242336 95.0914892,18.5272263 95.0962876,19.1687591 L95.1962535,22.7136496 C95.197853,22.940073 95.162665,23.2050365 95.2394388,23.4306569 C95.3537999,23.6948175 95.2426377,23.959781 95.20665,24.2231387 C95.1346745,24.5258394 94.7971895,24.6791971 94.4956922,24.5683942 L94.3445437,24.4937226 L93.8910982,24.120365 C93.9262862,23.8176642 93.9998612,23.5157664 93.997462,23.2516058 C93.9934634,22.7232847 93.9150901,22.2327007 93.9110914,21.7043796 C93.9070928,21.2145985 94.0542426,20.6862774 93.9750696,20.1956934 C93.8942971,19.3654745 93.888699,18.5737956 93.8823012,17.7427737 C93.8679061,15.6680292 93.8151241,13.5555474 93.7999293,11.4422628 C93.7959307,10.8384672 93.9046936,10.2716058 93.8247208,9.66781022 C93.7455478,9.21576642 94.0438462,8.87452555 94.343744,8.68262774 C94.7180165,8.41605839 95.1298762,8.22416058 95.6944838,8.44656934 C95.8856187,8.82233577 96.1511282,9.23664234 96.3422631,9.64934307 C96.8388939,10.6264964 97.2587508,11.6060584 97.7169947,12.5832117 L98.7094565,14.7270073 C99.0141527,15.2914599 99.2436745,15.8559124 99.5859579,16.380219 C99.9666282,17.0578832 100.309711,17.7724818 100.57842,18.5248175 C100.655194,18.7127007 100.806342,18.9383212 100.883916,19.1647445 C101.34056,19.990146 101.760417,20.8556934 102.217861,21.719635 C102.407397,22.0584672 102.560944,22.3956934 102.827254,22.8477372 C102.937616,22.5450365 102.899229,22.3186131 102.89763,22.129927 C102.933617,21.9412409 102.894431,21.7148175 102.892831,21.5261314 L102.888033,20.8862044 C102.801662,19.2635036 102.676905,17.6424088 102.628121,16.0189051 C102.619324,14.8875912 102.724089,13.7546715 102.677704,12.5856204 C102.63212,11.4157664 102.92482,10.2812409 102.6913,9.11218978 C102.613726,8.84963504 102.762476,8.62240876 102.948812,8.46985401 C103.023987,8.43131387 103.099161,8.3550365 103.173536,8.3550365 L103.661369,8.20087591 C103.925279,8.31167883 104.038841,8.46182482 104.04044,8.68824818 C104.046038,9.36751825 104.013249,10.0845255 104.018048,10.7637956 C104.018848,10.8770073 103.98206,10.990219 103.945273,11.1419708 C103.874097,11.670292 104.029244,12.2355474 103.958068,12.840146 C103.886093,13.3684672 103.928478,13.9722628 103.933277,14.5375182 C103.937275,15.1035766 103.978061,15.669635 103.98206,16.2364964 C103.987658,16.9527007 103.954869,17.6327737 103.922081,18.3112409 C103.891691,19.3309489 104.049237,20.3113139 103.868499,21.2924818 C104.10042,22.1588321 103.654972,23.03 103.962067,23.8963504 C104.001254,24.0087591 103.926079,24.1227737 103.889292,24.2359854 C103.854104,24.5009489 103.742142,24.690438 103.442244,24.7675182 C103.141546,24.8068613 102.840049,24.7345985 102.650514,24.4712409 L102.460179,24.0577372 C101.812399,22.8927007 101.090245,21.7276642 100.480053,20.5248905 C99.9458353,19.4353285 99.3740301,18.3827007 98.878199,17.2923358 L97.4282931,14.2075182 C97.0084361,13.4190511 96.7021405,12.5535036 96.2446963,11.7634307 C95.864026,11.0865693 95.5577304,10.3342336 95.1770601,9.54576642 C95.027511,9.6589781 94.9899238,9.6589781 94.9899238,9.69671533" id="Fill-43"></path>
                    <path d="M115.022139,14.6090584 C114.580689,15.9708102 113.915316,17.5605912 113.587427,18.9970146 C114.49032,19.1038029 115.467587,19.0965766 116.332092,19.1278905 C117.57247,19.1559927 119.036771,18.9191314 120.238761,18.9102993 C120.277148,18.9094964 120.276348,18.8348248 120.38911,18.7585474 L119.545397,16.463 C119.087154,15.4095693 118.440174,14.3946788 117.98193,13.3420511 C117.751609,12.7398613 117.710023,12.1746058 117.480501,11.5724161 C117.327753,11.2713212 116.947882,10.7084745 116.71916,10.2572336 C116.128961,11.733 115.463588,13.2850438 115.022139,14.6090584 M117.57247,8.74132117 C117.802791,9.23029927 118.0691,9.75621168 118.223448,10.3214672 C118.493756,11.3002263 118.913613,12.2404453 119.371057,13.142927 C119.71414,13.8197883 120.09481,14.4966496 120.401106,15.2489854 C120.706602,16.0013212 121.088872,16.7536569 121.319993,17.5822701 C121.588701,18.3723431 121.970171,19.1246788 122.313254,19.8778175 C122.809085,20.9296423 123.268129,21.983073 123.727173,23.073438 C123.879121,23.3359927 123.994282,23.5993504 124.108643,23.9004453 C124.224603,24.2392774 124.037467,24.5050438 123.663194,24.5451898 C123.625607,24.5459927 123.549633,24.5082555 123.512046,24.5090584 C122.571566,24.4777445 122.722715,24.4392044 122.489994,23.5351168 C122.1805,22.3676715 121.684669,21.2765036 121.112863,20.1500073 C119.834899,20.1202993 118.369798,20.2078175 117.091034,20.1411752 C115.774682,20.0753358 114.347968,20.3121971 113.034016,20.3965036 C112.477406,21.4194234 111.844821,22.4046058 111.628095,23.5768686 C111.592907,23.8410292 111.480945,24.0674526 111.40737,24.2577445 C111.334595,24.5219051 111.335395,24.6720511 111.073084,24.7121971 C110.809174,24.7515401 110.509276,24.8671606 110.282953,24.6423431 C110.055031,24.3797883 110.278955,24.1140219 110.35253,23.8875985 L112.973237,17.2659197 C113.268336,16.3955547 113.525049,15.5259927 113.819348,14.692562 C114.040073,14.0502263 114.261598,13.4448248 114.520709,12.8386204 C115.147696,11.2865766 115.738694,9.77387591 116.177745,8.14716058 C116.852715,7.91591971 117.305361,8.17686861 117.57247,8.74132117" id="Fill-45"></path>
                    <path d="M137.76519,9.87785401 C137.775586,11.2733285 137.711608,12.708146 137.757992,14.1044234 C137.805976,15.4621606 137.928334,16.8198978 138.013905,18.177635 C138.016304,18.668219 137.982716,19.1973431 137.91234,19.687927 C137.804376,20.5189489 137.773187,21.3869051 137.4413,22.1817956 C136.960664,23.3925985 135.91622,24.4564672 134.450319,24.5431825 C133.775349,24.5849343 133.135567,24.5142774 132.494186,24.3312117 C132.344637,24.2942774 132.155101,24.2196058 132.004752,24.108 C131.475333,23.658365 130.945913,23.2472701 130.490868,22.7221606 C130.187771,22.3849343 129.996637,21.8967591 129.768714,21.4824526 C129.952651,21.0296058 130.289337,20.837708 130.66281,20.5334015 C130.777171,20.6835474 130.852345,20.7590219 130.929119,20.908365 C131.309789,21.5466861 131.802421,22.1087299 132.407015,22.5952993 C132.898848,23.0071971 133.465055,23.3050803 134.179211,23.2994599 C135.26924,23.3291679 136.09136,22.7189489 136.309686,21.6237664 C136.490424,20.718073 136.634375,19.8107737 136.627177,18.8673431 C136.581593,17.6228175 136.610383,16.4152263 136.600786,15.1690949 L136.431244,12.4536204 C136.428045,12.0015766 136.387259,11.547927 136.38406,11.0958832 C136.381661,10.6799708 136.264901,10.2287299 136.336876,9.77508029 C136.409651,9.39690511 136.255304,9.02113869 136.252905,8.6060292 C136.212119,8.11544526 136.47363,7.88741606 136.963063,7.95887591 C137.150199,7.99581022 137.339735,8.10741606 137.641232,8.18048175 C137.682018,8.78427737 137.761991,9.34953285 137.76519,9.87785401" id="Fill-47"></path>
                    <path d="M146.506771,23.2475109 C147.786335,23.3896277 149.022714,23.0411606 150.301478,23.0692628 C150.339066,23.0692628 150.41424,23.0307226 150.451827,22.9937883 C151.163585,22.7617445 151.838555,22.4927664 152.435951,21.9596277 C152.884598,21.5035693 153.293259,21.0475109 153.627545,20.5183869 C154.260929,19.607073 154.667191,18.5849562 154.771955,17.5283139 C154.951094,16.1689708 155.015872,14.8096277 154.630403,13.4912336 C154.475256,12.8890438 154.284121,12.3245912 154.091387,11.7585328 C153.709117,10.7813796 152.989363,10.0691898 152.083271,9.51035766 C151.856948,9.36021168 151.518664,9.32488321 151.254754,9.2510146 C150.200713,9.10889781 149.185059,8.92663504 148.131018,8.82145255 C147.643184,8.74918978 147.191338,8.79013869 146.703504,8.79335036 C146.326833,8.83510219 146.21647,8.98605109 146.143695,9.36422628 C146.07092,9.74240146 146.035732,10.0828394 146.038131,10.4594088 C146.042929,11.0632044 146.123702,11.7039343 146.1277,12.3454672 C146.131699,12.9492628 146.023736,13.5915985 146.065322,14.1953942 C146.074119,15.4021825 146.045328,16.6097737 146.166887,17.816562 C146.288446,18.9486788 146.183681,20.0815985 146.228466,21.2129124 C146.231665,21.5525474 146.234064,21.8921825 146.274051,22.2302117 C146.27645,22.5321095 146.278849,22.8717445 146.318036,23.1359051 C146.430797,23.2105766 146.469184,23.2475109 146.506771,23.2475109 M148.500492,7.80013869 C149.402585,7.79291241 150.306277,8.01291241 151.209969,8.1959781 C152.300797,8.45210949 153.169301,8.9740073 154.001018,9.64765693 C154.643999,10.1703577 155.062256,10.847219 155.330965,11.637292 C155.600473,12.5028394 155.907568,13.3691898 156.064315,14.2355401 C156.261048,15.5924745 156.308232,16.9132774 155.867582,18.237292 C155.573282,19.1831314 155.203808,20.0534964 154.75836,20.9238613 C154.498448,21.3783139 154.20095,21.7958321 153.827477,22.1001387 C152.81982,22.9761241 151.811364,23.926781 150.422237,24.2005766 C149.971991,24.317 149.484157,24.3210146 149.03311,24.3619635 C148.620451,24.4021095 148.243779,24.4422555 147.867907,24.3699927 C147.491236,24.2977299 147.117763,24.527365 146.702704,24.3780219 C146.589943,24.3410876 146.439594,24.4559051 146.290045,24.4944453 C145.838999,24.5731314 145.462327,24.3876569 145.085655,24.2013796 C144.933707,24.1275109 144.856933,23.8256131 144.856134,23.636927 C144.813748,23.0339343 144.846537,22.3924015 144.841739,21.7500657 C144.877726,21.5244453 144.913714,21.2594818 144.912115,21.0330584 C144.906516,20.2791168 144.863331,19.5621095 144.89532,18.8081679 C144.927309,18.0518175 144.960098,17.2978759 144.9553,16.5423285 C144.947303,15.4102117 144.938506,14.2403577 144.892121,13.1090438 C144.80735,11.7513066 144.948902,10.4297007 145.01448,9.07035766 C145.050467,8.88167153 145.124042,8.72991971 145.198417,8.57816788 L145.682252,7.93422628 C146.697106,7.88845985 147.598399,7.80656204 148.500492,7.80013869" id="Fill-49"></path>
                    <path d="M164.273358,16.2141752 C165.965581,16.4285547 167.576233,15.8127153 168.509515,14.8251241 C169.106111,14.1795766 169.358825,12.8941022 169.391614,12.1393577 C169.457991,10.8554891 168.850199,9.91687591 167.792159,9.32030657 C167.265139,9.02242336 166.626156,8.91322628 165.986374,8.88030657 C165.64809,8.88271533 165.346592,8.80964964 165.008307,8.81205839 C164.670023,8.81446715 164.294951,8.89315328 163.957466,8.9710365 C163.844704,9.00957664 163.733542,9.16132847 163.659167,9.27454015 C163.584793,9.4640292 163.548805,9.69125547 163.551204,9.91767883 C163.519215,10.7101606 163.487226,11.5026423 163.530411,12.3328613 C163.538408,13.426438 163.735141,14.5946861 163.705551,15.6906715 C163.706351,15.8030803 163.744738,15.9917664 163.746337,16.1419124 C163.933474,16.1788467 164.085422,16.215781 164.273358,16.2141752 M171.091835,23.7873139 C171.167809,23.9366569 171.056647,24.126146 170.945485,24.2024234 C170.644787,24.3943212 170.19454,24.5099416 170.005805,24.3228613 C169.55156,23.7977518 169.170889,23.1971679 168.753431,22.595781 C167.918516,21.4700876 167.121188,20.3443942 166.32306,19.2187007 C166.095937,18.8798686 165.830427,18.5418394 165.564918,18.2423504 C165.413769,18.0930073 165.185847,17.7549781 164.997111,17.6425693 C164.732401,17.4940292 164.244568,17.535781 163.793521,17.575927 C163.733542,19.6522774 163.863098,21.9903796 163.727944,24.1044672 C163.352872,24.2200876 163.054573,24.4866569 162.638715,24.1879708 C162.633916,23.5087007 162.665906,22.7908905 162.62352,22.0746861 C162.56594,19.3584088 162.471572,16.5666569 162.376404,13.8511825 C162.143684,12.9085547 162.287634,11.9635182 162.280437,10.9823504 C162.274839,10.2284088 162.457177,9.43512409 162.601927,8.6779708 C162.675502,8.41461314 162.861039,8.14884672 162.972201,7.95935766 C164.586851,7.56994161 166.091139,7.78592701 167.596226,8.0380438 C168.649467,8.18176642 169.406009,8.81767883 170.013002,9.60694891 C170.278512,9.94337226 170.43126,10.3954161 170.472046,10.7735912 C170.552019,11.4512555 170.669579,12.1297226 170.600002,12.8475328 C170.532025,13.9419124 170.05059,14.8516204 169.379618,15.6866569 C168.635072,16.6349051 167.360306,17.1351241 166.23429,17.256365 C167.903321,19.3953431 169.647527,21.4949781 171.091835,23.7873139" id="Fill-51"></path>
                    <path d="M181.84865,14.1244964 C181.4064,15.4862482 180.741827,17.0760292 180.413939,18.5124526 C181.316831,18.6192409 182.294098,18.6120146 183.158603,18.6433285 C184.398981,18.6722336 185.863282,18.4345693 187.065272,18.4257372 C187.10286,18.4257372 187.10286,18.3510657 187.215621,18.2739854 L186.371909,15.978438 C185.912865,14.9250073 185.266685,13.9101168 184.808441,12.8574891 C184.57812,12.2552993 184.536534,11.6900438 184.307012,11.087854 C184.155064,10.7867591 183.774394,10.2239124 183.546471,9.77267153 C182.955473,11.248438 182.2893,12.8012847 181.84865,14.1244964 M184.399781,8.25675912 C184.628503,8.74573723 184.895612,9.27164964 185.049959,9.83690511 C185.319467,10.8156642 185.740124,11.7566861 186.196768,12.658365 C186.540651,13.3352263 186.922121,14.0120876 187.228417,14.7644234 C187.533913,15.5167591 187.915383,16.2690949 188.146504,17.097708 C188.416012,17.887781 188.796682,18.6401168 189.140565,19.3932555 C189.636396,20.4450803 190.09544,21.4985109 190.554484,22.5888759 C190.705632,22.8514307 190.820793,23.1147883 190.935954,23.4158832 C191.051114,23.7547153 190.864778,24.0204818 190.489706,24.0614307 C190.452118,24.0614307 190.376144,24.0244964 190.338557,24.0244964 C189.398877,23.9939854 189.549226,23.9546423 189.317305,23.0505547 C189.007011,21.8831095 188.51118,20.7927445 187.939375,19.6654453 C186.66221,19.6365401 185.196309,19.7232555 183.918345,19.6566131 C182.601193,19.5907737 181.174479,19.827635 179.860527,19.9127445 C179.303117,20.9348613 178.671332,21.9208467 178.454606,23.0923066 C178.418618,23.3564672 178.307456,23.5828905 178.233881,23.7731825 C178.161106,24.038146 178.161906,24.188292 177.899595,24.227635 C177.636485,24.2669781 177.336587,24.3825985 177.109464,24.157781 C176.881542,23.8952263 177.105466,23.6294599 177.179041,23.4038394 L179.799748,16.7813577 C180.094847,15.9109927 180.35156,15.0414307 180.64586,14.208 C180.866584,13.5656642 181.088109,12.9602628 181.346421,12.3540584 C181.974207,10.8020146 182.565206,9.28931387 183.004256,7.66340146 C183.679226,7.43135766 184.131872,7.69230657 184.399781,8.25675912" id="Fill-53"></path>
                    <path d="M202.518887,3.37059124 C202.927548,2.72584672 203.335409,2.08190511 203.707282,1.4379635 C203.856031,1.20993431 203.892019,1.02044526 204.116743,0.906430657 C204.304679,0.829350365 204.642963,0.826941606 204.794112,0.939350365 C204.907673,1.0509562 204.870886,1.35285401 204.873285,1.58008029 C204.874085,1.69248905 204.762922,1.80730657 204.726135,1.92051825 C204.204713,2.75394891 203.723277,3.62591971 203.165867,4.42241606 C202.384533,5.63482482 201.332891,5.64285401 200.459589,4.5179635 L198.562635,1.96467883 C198.181965,1.47810949 198.141179,1.06219708 198.441076,0.872708029 C198.703387,0.643875912 199.004085,0.791613139 199.345568,1.24285401 L201.205734,3.79453285 C201.320096,3.94548175 201.548018,4.32124818 201.77514,4.58380292 L202.518887,3.37059124 Z M204.812506,8.82562774 C204.362259,8.79110219 203.609715,8.79672263 203.121082,8.80073723 C201.580007,8.81117518 199.889383,8.86175912 198.348308,8.873 C197.822087,8.87621168 197.295867,8.80555474 196.733658,9.11066423 C196.541724,8.54621168 196.388976,8.20737956 196.723262,7.71438686 C196.799236,7.71358394 196.87361,7.63730657 196.911198,7.63730657 C198.189162,7.62847445 199.467127,7.65657664 200.706704,7.64774453 C202.172605,7.59956934 203.751267,7.55059124 205.217168,7.53935036 C205.893737,7.53533577 206.570307,7.56825547 207.246876,7.63810949 C207.360437,7.63730657 207.436412,7.74971533 207.511586,7.78745255 C207.513985,8.16482482 207.290861,8.46832847 207.105324,8.73409489 C206.212029,10.022781 205.282745,11.3877445 204.502211,12.752708 C203.835239,13.8904453 203.128279,14.9888394 202.459707,16.0880365 C202.014259,16.8082555 201.568811,17.6416861 201.085775,18.362708 C200.60194,19.082927 199.63507,20.4486934 199.078459,21.5085474 C198.892123,21.8120511 198.669799,22.2279635 198.63541,22.6438759 C199.763026,22.5981095 201.002604,22.6262117 202.092632,22.4672336 C202.354943,22.4278905 202.65644,22.463219 202.919551,22.4993504 C203.521745,22.5708102 204.083954,22.5282555 204.685349,22.4487664 C205.586642,22.3668686 206.488734,22.3981825 207.391627,22.4286934 C207.73391,23.0300803 207.736309,23.2942409 207.438811,23.8257737 C205.409902,23.8402263 203.417781,23.8924161 201.387273,23.8313942 C200.523567,23.8000803 199.619875,23.7302263 198.757769,23.8884015 L198.381097,23.8916131 C197.741315,23.8209562 197.552579,23.6700073 197.510194,22.9915401 C197.501397,21.7084745 197.87247,21.1400073 198.207556,20.6470146 C199.137639,19.3575255 199.8398,17.6922701 200.733096,16.4774526 C201.253718,15.7202993 201.811128,14.8097883 202.294963,14.0140949 C202.591662,13.483365 202.850774,12.9911752 203.261034,12.5351168 C203.447371,12.3078905 203.632907,12.0035839 203.74327,11.7394234 C204.001582,11.1340219 204.487016,10.4884745 204.85889,9.95774453 L205.377913,9.0480365 C205.114003,8.93643066 204.964454,8.86256204 204.812506,8.82562774 L204.812506,8.82562774 Z" id="Fill-55"></path>
                    <path d="M221.278895,9.27253285 C221.289292,10.6680073 221.225313,12.1028248 221.271698,13.4991022 C221.319681,14.8568394 221.44204,16.2145766 221.52761,17.5723139 C221.53001,18.0628978 221.496421,18.5920219 221.426045,19.0826058 C221.318082,19.9136277 221.286893,20.7815839 220.955006,21.5764745 C220.474369,22.7872774 219.429925,23.851146 217.964824,23.9378613 C217.289854,23.9796131 216.650072,23.9089562 216.008691,23.7258905 C215.859142,23.6889562 215.669606,23.6142847 215.519258,23.5026788 C214.989838,23.0530438 214.460418,22.6419489 214.005373,22.1168394 C213.702277,21.7796131 213.511142,21.291438 213.283219,20.8771314 C213.467157,20.4242847 213.803842,20.2323869 214.177315,19.9280803 C214.291676,20.0782263 214.36685,20.1537007 214.443624,20.3030438 C214.824294,20.940562 215.316927,21.5034088 215.921521,21.9899781 C216.413353,22.4018759 216.97956,22.6997591 217.693717,22.6941387 C218.783745,22.7238467 219.605066,22.1136277 219.823391,21.0184453 C220.00413,20.1119489 220.148081,19.2054526 220.140883,18.2620219 C220.095299,17.0174964 220.124089,15.8099051 220.114492,14.5637737 L219.94495,11.8474964 C219.941751,11.3954526 219.900965,10.9426058 219.897766,10.490562 C219.895367,10.0746496 219.778606,9.62340876 219.850582,9.16975912 C219.923357,8.79078102 219.76901,8.41581752 219.76661,8.00070803 C219.725824,7.51012409 219.987335,7.28209489 220.476769,7.35355474 C220.663905,7.39048905 220.85344,7.50209489 221.154937,7.57516058 C221.195724,8.1789562 221.275696,8.74421168 221.278895,9.27253285" id="Fill-57"></path>
                    <path d="M229.465946,23.8159781 C229.27641,23.6297007 229.049288,23.4795547 228.822965,23.2547372 C228.822165,23.1415255 228.782978,22.9913796 228.819766,22.8396277 C228.964517,22.0840803 228.921331,21.2915985 228.878946,20.536854 C228.750989,18.5014526 228.66142,16.5021825 228.683812,14.5013066 C228.680613,13.9737883 228.654222,10.3510146 228.687011,9.59546715 L228.787777,7.97276642 C228.821365,7.44364234 229.195638,7.17707299 229.722658,7.36254745 C229.83622,7.39948175 229.912194,7.47335036 230.024955,7.5480219 C230.106528,8.37743796 230.112126,9.20845985 230.043349,10.0394818 C229.938585,11.1338613 229.946582,12.2282409 229.95378,13.2848832 C229.965775,14.8698467 230.014559,16.417073 229.987368,18.0020365 C229.964176,19.8880949 230.164908,21.7741533 230.328852,23.6216715 C230.068141,23.9259781 229.766643,23.8135693 229.465946,23.8159781" id="Fill-59"></path>
                    <path d="M244.697476,14.5746131 C245.102938,13.6279708 245.698735,12.8306715 246.256945,12.0349781 C246.777567,11.1630073 247.29739,10.2918394 247.854001,9.41906569 L249.155957,7.48563504 C249.230332,7.37081752 249.417468,7.29534307 249.53023,7.25680292 L250.581871,7.24877372 C251.073704,7.54665693 251.188065,7.9609635 251.192063,8.41381022 C251.196062,9.05534307 251.239247,9.65913869 251.205659,10.2629343 C251.138482,11.4335912 251.109691,12.565708 251.305625,13.696219 C251.344811,13.9226423 251.309623,14.1876058 251.311223,14.4140292 C251.358407,15.8841752 251.294428,17.3189927 251.416787,18.7522044 C251.538345,19.9212555 251.508755,21.0903066 251.55434,22.2601606 C251.556739,22.5620584 251.558339,22.826219 251.523151,23.0895766 C251.488762,23.506292 251.264039,23.6580438 250.85058,23.6243212 C250.512295,23.5889927 250.32196,23.4003066 250.319561,23.0229343 C250.382739,21.2492847 250.218795,19.4772409 250.318761,17.7027883 C250.355548,17.5149051 250.278775,17.2884818 250.277175,17.0997956 C250.267578,15.7412555 250.257182,14.3835182 250.17321,13.0249781 C250.126027,11.7804526 250.267578,10.4965839 250.220394,9.25045255 C250.217995,8.94935766 250.253983,8.64665693 250.102035,8.30782482 C249.988473,8.38490511 249.838924,8.38651095 249.76455,8.50052555 C249.578213,8.6900146 249.467051,8.87870073 249.316702,9.06979562 L245.937854,14.6404526 C245.640355,15.1334453 245.380443,15.7019124 245.158919,16.2318394 C244.938994,16.8372409 244.603108,17.2170219 243.888952,17.1841022 C243.13001,16.1322774 242.670167,14.9287007 242.135149,13.7620584 C241.410596,12.2204526 240.685243,10.6788467 239.921503,9.1380438 C239.769555,8.83694891 239.504845,8.57359124 239.276923,8.23636496 C239.017811,8.91724088 239.060197,9.55877372 239.065795,10.2388467 L239.072993,11.2192117 L239.251332,15.1800146 C239.260129,16.3876058 239.306513,17.5951971 239.31531,18.8027883 C239.362494,20.1982628 239.184155,21.6322774 239.3457,23.0277518 C239.346499,23.1032263 239.271325,23.2172409 239.234537,23.3681898 L238.294058,23.2622044 C238.103723,22.7724234 238.099724,22.2441022 238.096525,21.7535182 C238.010954,20.395781 237.96377,19.0388467 238.066935,17.716438 C238.167701,16.0937372 238.006156,14.5481168 237.807824,12.9631533 C237.805424,12.6997956 237.766238,12.4741752 237.802225,12.2469489 C237.871802,11.4544672 237.866204,10.6997226 237.897393,9.90643796 C237.931781,9.37811679 237.890196,8.84979562 237.886197,8.32147445 C237.883798,8.05731387 237.919785,7.83169343 237.955773,7.56672993 C238.029348,7.30176642 238.893854,7.22067153 239.569623,7.17731387 C239.982283,7.13636496 240.210205,7.3619854 240.438927,7.81322628 C241.049119,8.93972263 241.508963,10.2203796 242.117555,11.3468759 C242.423051,11.9490657 242.652573,12.5512555 242.920482,13.1526423 C243.18839,13.8688467 243.645035,14.5449051 244.063292,15.2209635 C244.063292,15.2587007 244.138467,15.2578978 244.251228,15.3317664 C244.399978,15.0676058 244.585514,14.8395766 244.697476,14.5746131" id="Fill-61"></path>
                </g>
            </g>
        </g>
    </g>
</svg>